30
Baloon Летун 10 10 30
Helicopter Хели 20 20 30
JetPlane Ящер 30 30 30
Helicopter Апач 100 100 50
JetPlane УНИЧТОЖИТЕЛЬ 200 200 99
Baloon BJEQK-121a 99 99 99
Baloon НатальяВасильевна 35 86 11
Helicopter ИП_Кузнецова 74 51 66
JetPlane JET-1 34 999 46
JetPlane JET-2 35 999 46
JetPlane JET-3 33 999 46
Helicopter H-2 999 999 99